activation,error,neurons,layers
tanh,21.399022901824953,1,1
tanh,19.89406344586596,8,1
tanh,19.617442589477573,8,8
tanh,19.663828356272106,8,16
tanh,19.66587650438293,8,24
tanh,20.05536615966176,8,32
tanh,21.3418275382289,8,48
tanh,26.13739822298826,8,56
tanh,31.371065197196902,8,64
tanh,31.07133856032909,8,72
tanh,19.80781446365573,16,1
tanh,19.455462674763602,16,8
tanh,19.817212464873375,16,16
tanh,20.068832857324544,16,24
tanh,28.642274657201494,16,32
tanh,32.36703047587694,16,48
tanh,22.351151440975336,16,56
tanh,24.678900444963674,16,64
tanh,28.281611344873063,16,72
tanh,20.160019328047902,24,1
tanh,19.78702154364785,24,8
tanh,19.95041800363443,24,16
tanh,20.301451676934608,24,24
tanh,32.494884656011386,24,32
tanh,23.296291179227204,24,48
tanh,29.8763009056776,24,56
tanh,33.321966848426555,24,64
tanh,23.621656009872847,24,72
tanh,20.376727056627935,32,1
tanh,19.85817921115387,32,8
tanh,20.231344712515916,32,16
tanh,19.97412706452426,32,24
tanh,33.055656541713425,32,32
tanh,26.72365631521012,32,48
tanh,27.192263631243097,32,56
tanh,35.13866595261629,32,64
tanh,32.825305150943066,32,72
tanh,21.42136716982194,48,1
tanh,20.440717000900694,48,8
tanh,19.947758310202943,48,16
tanh,26.11442351586102,48,24
tanh,35.47543299792425,48,32
tanh,31.685402888752694,48,48
tanh,31.345163980982637,48,56
tanh,33.95967511831825,48,64
tanh,33.9326813978346,48,72
tanh,21.52383052323017,56,1
tanh,19.74152408042329,56,8
tanh,20.41926780127438,56,16
tanh,23.240482115744292,56,24
tanh,37.19449654640868,56,32
tanh,26.244777518232294,56,48
tanh,44.49489706280028,56,56
tanh,32.769747492390074,56,64
tanh,38.182305440398686,56,72
tanh,23.40962527754579,64,1
tanh,19.772213371673043,64,8
tanh,20.195988166116855,64,16
tanh,30.648848709225714,64,24
tanh,35.53237071412198,64,32
tanh,23.415080738162516,64,48
tanh,32.8911797952494,64,56
tanh,32.59573896547212,64,64
tanh,30.98647732567278,64,72
tanh,19.477567365905927,72,1
tanh,20.244884495530034,72,8
tanh,19.540194393602278,72,16
tanh,35.341959525051095,72,24
tanh,32.428905600867324,72,32
tanh,35.57472628036123,72,48
tanh,32.81339152027913,72,56
tanh,32.54341543993572,72,64
tanh,32.967360991137326,72,72
relu,23.20342893038444,1,1
relu,43.91618107496457,8,1
relu,19.855881430490093,8,8
relu,19.718902075773705,8,16
relu,44.882909901432804,8,24
relu,28.932486019333325,8,32
relu,32.31400093618326,8,48
relu,32.6601279565155,8,56
relu,32.80746116747094,8,64
relu,33.56704034945951,8,72
relu,44.63532621356269,16,1
relu,20.040246681673356,16,8
relu,44.860207947963,16,16
relu,44.62681781786097,16,24
relu,44.83555078202041,16,32
relu,32.361310751060586,16,48
relu,44.4931566320984,16,56
relu,32.842226719709984,16,64
relu,31.997426096871685,16,72
relu,44.53470282972474,24,1
relu,19.99508641908996,24,8
relu,44.809215972051895,24,16
relu,44.51895582578376,24,24
relu,44.837385738812614,24,32
relu,22.185111024860774,24,48
relu,44.26718091665882,24,56
relu,43.685382173510455,24,64
relu,32.795187996040646,24,72
relu,43.82492115069278,32,1
relu,20.13618921732387,32,8
relu,44.74299937152866,32,16
relu,44.53346733320479,32,24
relu,44.78771917235495,32,32
relu,44.44374908807538,32,48
relu,44.41173580954848,32,56
relu,44.720248248428376,32,64
relu,44.04540680838732,32,72
relu,43.8740953156469,48,1
relu,44.553705927986265,48,8
relu,20.162780057374594,48,16
relu,44.61660546109365,48,24
relu,44.91092661092903,48,32
relu,44.653558029823294,48,48
relu,44.35209792069518,48,56
relu,44.19350519938821,48,64
relu,44.12859655139887,48,72
relu,44.45846897179038,56,1
relu,44.63636093484799,56,8
relu,45.35134710931705,56,16
relu,44.326018705362586,56,24
relu,44.84041929481956,56,32
relu,44.76159087760777,56,48
relu,44.316804593048786,56,56
relu,44.21746481101434,56,64
relu,44.55269149508439,56,72
relu,44.44487400453919,64,1
relu,44.23342597361515,64,8
relu,44.512695307851544,64,16
relu,44.0961766027111,64,24
relu,44.89049166533704,64,32
relu,44.34830217980292,64,48
relu,44.69734827812563,64,56
relu,43.808911033970865,64,64
relu,44.93248159595156,64,72
relu,44.482165634688926,72,1
relu,20.053735438985502,72,8
relu,20.454660513925024,72,16
relu,43.43097074878073,72,24
relu,44.7369749780307,72,32
relu,20.149173186568948,72,48
relu,44.69920917089831,72,56
relu,44.74507518580254,72,64
relu,43.873817341364294,72,72
sigmoid,21.386327243338116,1,1
sigmoid,20.464924989724334,8,1
sigmoid,20.02890160354774,8,8
sigmoid,19.462237768683238,8,16
sigmoid,19.542971722625115,8,24
sigmoid,19.55377435668265,8,32
sigmoid,19.5697074631727,8,48
sigmoid,20.68569865740254,8,56
sigmoid,28.057717622843985,8,64
sigmoid,20.74609423856943,8,72
sigmoid,21.146877228828558,16,1
sigmoid,19.738195295060994,16,8
sigmoid,19.53866214577341,16,16
sigmoid,19.599186583292106,16,24
sigmoid,20.305369242372173,16,32
sigmoid,19.73547557383715,16,48
sigmoid,43.28826687804026,16,56
sigmoid,33.696912032786116,16,64
sigmoid,34.005366595467876,16,72
sigmoid,21.462208430577522,24,1
sigmoid,19.453422370612454,24,8
sigmoid,19.628424762878897,24,16
sigmoid,19.617880582481575,24,24
sigmoid,19.529698881616973,24,32
sigmoid,22.60380275157978,24,48
sigmoid,32.9887699192227,24,56
sigmoid,33.98840885801206,24,64
sigmoid,25.795334117266403,24,72
sigmoid,21.807191677845168,32,1
sigmoid,19.38693939448135,32,8
sigmoid,20.023836016482633,32,16
sigmoid,19.64505890691844,32,24
sigmoid,20.52296672589978,32,32
sigmoid,35.75178879207958,32,48
sigmoid,40.01796570368459,32,56
sigmoid,23.526981799048688,32,64
sigmoid,35.83145414309657,32,72
sigmoid,19.502833877213984,48,1
sigmoid,19.532368748972242,48,8
sigmoid,19.247157387370258,48,16
sigmoid,21.410807745671267,48,24
sigmoid,28.779174484378288,48,32
sigmoid,31.177006712469705,48,48
sigmoid,38.31622645626393,48,56
sigmoid,52.874054293296446,48,64
sigmoid,33.97547209726561,48,72
sigmoid,22.92371907248494,56,1
sigmoid,19.785899011067404,56,8
sigmoid,19.546425300709195,56,16
sigmoid,19.71806759331257,56,24
sigmoid,28.694601769345823,56,32
sigmoid,44.07806598853829,56,48
sigmoid,29.976961526270845,56,56
sigmoid,35.200691540951304,56,64
sigmoid,29.51960224483883,56,72
sigmoid,21.96898823504287,64,1
sigmoid,19.73271266927074,64,8
sigmoid,19.528232720438517,64,16
sigmoid,19.61261303822523,64,24
sigmoid,27.64692581038168,64,32
sigmoid,32.94181834036079,64,48
sigmoid,28.31351013127847,64,56
sigmoid,28.840393931792576,64,64
sigmoid,27.920461308083766,64,72
sigmoid,22.203965592582595,72,1
sigmoid,20.157087955154577,72,8
sigmoid,19.57756059268986,72,16
sigmoid,21.574052500177196,72,24
sigmoid,24.061824996027287,72,32
sigmoid,29.089865657388284,72,48
sigmoid,32.344804870865076,72,56
sigmoid,31.10730605745323,72,64
sigmoid,32.22169886085376,72,72
tanh,28.12147410361823,8,40
tanh,32.74123368581481,16,40
tanh,26.407236790784864,24,40
tanh,34.83567206859109,32,40
tanh,20.60174741577452,40,1
tanh,20.130136848650018,40,8
tanh,19.80189052669292,40,16
tanh,26.776652744255728,40,24
tanh,33.53196522960713,40,32
tanh,38.236899647443906,40,40
tanh,25.83523935140772,40,48
tanh,53.07514605197968,40,56
tanh,29.272679540420416,40,64
tanh,32.69588817196863,40,72
tanh,37.02147617635676,48,40
tanh,31.20335926487776,56,40
tanh,31.893408549352454,64,40
tanh,29.110869658322972,72,40
sigmoid,20.1762933851437,8,40
sigmoid,19.967956108039488,16,40
sigmoid,20.450665067876272,24,40
sigmoid,28.91364190617575,32,40
sigmoid,19.497508062378348,40,1
sigmoid,19.976790379028348,40,8
sigmoid,19.96316560917148,40,16
sigmoid,19.963810142265103,40,24
sigmoid,20.740210321878287,40,32
sigmoid,27.811640620081448,40,40
sigmoid,28.588936898917694,40,48
sigmoid,55.2651607290924,40,56
sigmoid,34.32355199052025,40,64
sigmoid,26.858205776726862,40,72
sigmoid,31.821773360499186,48,40
sigmoid,25.6460332233612,56,40
sigmoid,38.99503901211196,64,40
sigmoid,33.593890221950986,72,40
relu,30.022570959372135,8,40
relu,24.15219559542219,16,40
relu,44.40227170824927,24,40
relu,44.37674114318612,32,40
relu,44.58072367655431,40,1
relu,44.10676415652423,40,8
relu,44.44908123184831,40,16
relu,44.30298872799519,40,24
relu,44.799283745018094,40,32
relu,44.59135684219168,40,40
relu,20.555501819479613,40,48
relu,29.658008507765405,40,56
relu,32.753194819853775,40,64
relu,31.274462758705205,40,72
relu,44.511311799814074,48,40
relu,44.52625548108419,56,40
relu,44.30451501806398,64,40
relu,44.19513233585398,72,40